<?xml version="1.0" standalone="no"?>
<!DOCTYPE svg PUBLIC "-//W3C//DTD SVG 20010904//EN"
 "http://www.w3.org/TR/2001/REC-SVG-20010904/DTD/svg10.dtd">
<svg version="1.0" xmlns="http://www.w3.org/2000/svg"
 width="1024.000000pt" height="1024.000000pt" viewBox="0 0 1024.000000 1024.000000"
 preserveAspectRatio="xMidYMid meet">
<metadata>
Created by potrace 1.11, written by Peter Selinger 2001-2013
</metadata>
<g transform="translate(0.000000,1024.000000) scale(0.100000,-0.100000)"
fill="#000000" stroke="none">
<path d="M5380 9370 c0 -3 37 -193 83 -421 l83 -416 -1385 -747 -1386 -746
-99 -298 c-54 -163 -103 -307 -107 -320 -8 -21 -24 -12 -324 188 -173 115
-320 210 -327 210 -17 0 -828 -326 -839 -337 -14 -15 -92 -298 -134 -490 l-5
-23 385 0 385 0 211 -317 212 -317 105 -314 c57 -172 102 -315 99 -318 -2 -2
-334 119 -738 270 l-734 274 -6 -56 c-8 -67 6 -406 21 -543 106 -953 516
-1823 1180 -2503 293 -300 580 -524 931 -726 1271 -733 2863 -755 4154 -59
391 212 714 457 1035 785 650 666 1058 1515 1174 2444 18 144 37 433 34 535
l-1 70 -6 -63 c-3 -34 -10 -63 -14 -63 -5 -1 -344 337 -754 750 -491 495 -742
755 -737 764 4 6 106 160 227 341 l219 329 -107 107 -107 108 87 262 87 262
-118 120 c-709 713 -1635 1158 -2599 1247 -179 17 -185 17 -185 11z m108
-2697 l-5 -667 22 26 c13 15 244 308 514 652 279 354 497 623 504 621 6 -2
189 -43 406 -90 217 -47 397 -87 399 -90 3 -3 -2 -13 -10 -22 -15 -18 -1022
-1247 -1040 -1270 -7 -8 149 -217 512 -689 482 -626 541 -704 527 -704 -2 0
-184 -54 -403 -120 -218 -66 -398 -119 -399 -117 -1 1 -233 323 -516 715
l-514 713 -3 -645 -2 -646 -23 -5 c-12 -2 -161 -23 -332 -45 -170 -23 -332
-46 -359 -51 -27 -5 -50 -8 -51 -7 -2 2 -5 684 -9 1516 -5 1207 -4 1513 6
1517 12 3 697 70 757 74 l24 1 -5 -667z m-1456 -258 l299 -186 47 22 c26 11
70 29 97 39 28 10 58 21 68 25 16 7 17 -4 17 -146 l0 -154 -56 -24 c-82 -35
-219 -130 -306 -211 -186 -172 -307 -393 -354 -645 -21 -117 -14 -325 15 -436
119 -456 468 -780 951 -885 118 -26 390 -26 510 -1 280 59 485 170 670 363 48
50 108 126 135 167 48 76 48 76 65 54 9 -12 79 -109 154 -215 130 -183 140
-194 165 -187 62 15 60 17 168 -150 56 -88 103 -167 103 -177 0 -19 -300 -309
-333 -321 -18 -7 -71 22 -311 173 l-288 182 -102 -50 c-55 -28 -140 -63 -188
-78 -65 -21 -90 -33 -94 -49 -4 -11 -40 -150 -80 -310 -51 -201 -78 -293 -90
-302 -26 -19 -467 -19 -482 0 -6 7 -41 145 -77 307 -36 162 -68 302 -70 311
-3 9 -36 25 -78 38 -39 13 -120 46 -179 73 l-107 51 -268 -155 c-280 -162
-328 -189 -335 -185 -9 5 829 -830 1344 -1339 l556 -549 -108 -185 c-60 -102
-114 -191 -121 -199 -17 -19 -551 -9 -734 13 -428 53 -780 145 -1182 307 l-33
13 0 354 0 355 -536 1284 c-295 706 -535 1286 -533 1287 2 2 127 65 277 140
l272 136 0 118 c0 64 4 123 9 131 5 8 128 37 327 77 385 77 364 72 364 85 0
22 73 195 106 252 l34 58 -175 275 c-97 151 -178 281 -181 288 -3 8 -2 21 3
28 18 29 321 318 333 318 7 0 148 -83 312 -185z"/>
<path d="M2950 4746 c0 -5 538 -612 620 -699 16 -17 20 -13 88 83 l71 101 -53
109 c-29 60 -64 145 -77 188 l-24 79 -290 67 c-159 36 -300 69 -312 72 -13 4
-23 3 -23 0z"/>
<path d="M4090 9258 c-143 -35 -285 -78 -415 -125 -97 -34 -336 -133 -383
-157 -22 -12 -10 -23 250 -217 150 -113 279 -208 285 -212 9 -6 68 103 198
364 103 204 185 372 183 374 -2 1 -55 -11 -118 -27z"/>
<path d="M8300 7957 c0 -2 15 -16 33 -33 l32 -29 -29 33 c-28 30 -36 37 -36
29z"/>
<path d="M8380 7866 c0 -2 8 -10 18 -17 15 -13 16 -12 3 4 -13 16 -21 21 -21
13z"/>
<path d="M8593 7376 l-62 -125 170 -56 c94 -32 172 -55 174 -53 8 7 -203 358
-215 358 -3 0 -33 -56 -67 -124z"/>
</g>
</svg>
